{
  "help": "https://data.gov.lv/dati/eng/api/3/action/help_show?name=datastore_search",
  "success": true,
  "result": {
    "include_total": true,
    "resource_id": "f7ae4483-8f99-43a9-afd6-11367871cd34",
    "fields": [
      {
        "type": "int",
        "id": "_id"
      },
      {
        "type": "text",
        "id": "Pašvaldība"
      },
      {
        "type": "numeric",
        "id": "Iestādes reģistrācijas Nr."
      },
      {
        "type": "text",
        "id": "Iestādes nosaukums"
      },
      {
        "type": "text",
        "id": "Iestādes veids"
      },
      {
        "type": "text",
        "id": "Iestādes tips"
      },
      {
        "type": "text",
        "id": "Pakļautība"
      },
      {
        "type": "text",
        "id": "Faktiskais dibinātājs"
      },
      {
        "type": "numeric",
        "id": "Adreses ATVK kods"
      },
      {
        "type": "numeric",
        "id": "Izglītības programmas kods"
      },
      {
        "type": "text",
        "id": "Izglītības programmas nosaukums"
      },
      {
        "type": "numeric",
        "id": "Izglītojamo skaits vecumā līdz 5 gadu vecumam"
      },
      {
        "type": "numeric",
        "id": "Izglītojamo skaits vecumā 5 gadi un vairāk"
      },
      {
        "type": "numeric",
        "id": "Izglītojamo skaits pirmsskolā kopā"
      },
      {
        "type": "numeric",
        "id": "1. klase"
      },
      {
        "type": "numeric",
        "id": "2. klase"
      },
      {
        "type": "numeric",
        "id": "3. klase"
      },
      {
        "type": "numeric",
        "id": "4. klase"
      },
      {
        "type": "numeric",
        "id": "5. klase"
      },
      {
        "type": "numeric",
        "id": "6. klase"
      },
      {
        "type": "numeric",
        "id": "7. klase"
      },
      {
        "type": "numeric",
        "id": "8. klase"
      },
      {
        "type": "numeric",
        "id": "9. klase"
      },
      {
        "type": "numeric",
        "id": "10. klase"
      },
      {
        "type": "numeric",
        "id": "11. klase"
      },
      {
        "type": "numeric",
        "id": "12. klase"
      },
      {
        "type": "numeric",
        "id": "Kopā 1.-12.klasē"
      },
      {
        "type": "numeric",
        "id": "Izglītojamo skaits kopā"
      }
    ],
    "records_format": "objects",
    "records": [
      {
        "_id": 1,
        "Pašvaldība": "AIZKRAUKLES NOVADS",
        "Iestādes reģistrācijas Nr.": 4501901606,
        "Iestādes nosaukums": "Neretas pirmsskolas izglītības iestāde \"Ziediņš\"",
        "Iestādes veids": "Pirmsskolas izglītības iestāde",
        "Iestādes tips": "Pirmsskolas izglītības iestāde",
        "Pakļautība": "Pašvaldība ",
        "Faktiskais dibinātājs": "Aizkraukles novada pašvaldība",
        "Adreses ATVK kods": 20490,
        "Izglītības programmas kods": 1011111,
        "Izglītības programmas nosaukums": "Pirmsskolas izglītības programma",
        "Izglītojamo skaits vecumā līdz 5 gadu vecumam": 33,
        "Izglītojamo skaits vecumā 5 gadi un vairāk": 28,
        "Izglītojamo skaits pirmsskolā kopā": 61,
        "1. klase": 0,
        "2. klase": 0,
        "3. klase": 0,
        "4. klase": 0,
        "5. klase": 0,
        "6. klase": 0,
        "7. klase": 0,
        "8. klase": 0,
        "9. klase": 0,
        "10. klase": 0,
        "11. klase": 0,
        "12. klase": 0,
        "Kopā 1.-12.klasē": 0,
        "Izglītojamo skaits kopā": 61
      },
      {
        "_id": 2,
        "Pašvaldība": "AIZKRAUKLES NOVADS",
        "Iestādes reģistrācijas Nr.": 4501901608,
        "Iestādes nosaukums": "Bebru pagasta pirmsskolas izglītības iestāde \"Bitīte\"",
        "Iestādes veids": "Pirmsskolas izglītības iestāde",
        "Iestādes tips": "Pirmsskolas izglītības iestāde",
        "Pakļautība": "Pašvaldība ",
        "Faktiskais dibinātājs": "Aizkraukles novada pašvaldība",
        "Adreses ATVK kods": 20420,
        "Izglītības programmas kods": 1011111,
        "Izglītības programmas nosaukums": "Pirmsskolas izglītības programma",
        "Izglītojamo skaits vecumā līdz 5 gadu vecumam": 35,
        "Izglītojamo skaits vecumā 5 gadi un vairāk": 22,
        "Izglītojamo skaits pirmsskolā kopā": 57,
        "1. klase": 0,
        "2. klase": 0,
        "3. klase": 0,
        "4. klase": 0,
        "5. klase": 0,
        "6. klase": 0,
        "7. klase": 0,
        "8. klase": 0,
        "9. klase": 0,
        "10. klase": 0,
        "11. klase": 0,
        "12. klase": 0,
        "Kopā 1.-12.klasē": 0,
        "Izglītojamo skaits kopā": 57
      },
      {
        "_id": 3,
        "Pašvaldība": "AIZKRAUKLES NOVADS",
        "Iestādes reģistrācijas Nr.": 4501901711,
        "Iestādes nosaukums": "Skrīveru novada pirmsskolas izglītības iestāde \"Sprīdītis\"",
        "Iestādes veids": "Pirmsskolas izglītības iestāde",
        "Iestādes tips": "Pirmsskolas izglītības iestāde",
        "Pakļautība": "Pašvaldība ",
        "Faktiskais dibinātājs": "Aizkraukles novada pašvaldība",
        "Adreses ATVK kods": 20530,
        "Izglītības programmas kods": 1011111,
        "Izglītības programmas nosaukums": "Pirmsskolas izglītības programma",
        "Izglītojamo skaits vecumā līdz 5 gadu vecumam": 67,
        "Izglītojamo skaits vecumā 5 gadi un vairāk": 44,
        "Izglītojamo skaits pirmsskolā kopā": 111,
        "1. klase": 0,
        "2. klase": 0,
        "3. klase": 0,
        "4. klase": 0,
        "5. klase": 0,
        "6. klase": 0,
        "7. klase": 0,
        "8. klase": 0,
        "9. klase": 0,
        "10. klase": 0,
        "11. klase": 0,
        "12. klase": 0,
        "Kopā 1.-12.klasē": 0,
        "Izglītojamo skaits kopā": 111
      },
      {
        "_id": 4,
        "Pašvaldība": "AIZKRAUKLES NOVADS",
        "Iestādes reģistrācijas Nr.": 4501901711,
        "Iestādes nosaukums": "Skrīveru novada pirmsskolas izglītības iestāde \"Sprīdītis\"",
        "Iestādes veids": "Pirmsskolas izglītības iestāde",
        "Iestādes tips": "Pirmsskolas izglītības iestāde",
        "Pakļautība": "Pašvaldība ",
        "Faktiskais dibinātājs": "Aizkraukles novada pašvaldība",
        "Adreses ATVK kods": 20530,
        "Izglītības programmas kods": 1015511,
        "Izglītības programmas nosaukums": "Speciālās pirmsskolas izglītības programma izglītojamajiem ar valodas traucējumiem",
        "Izglītojamo skaits vecumā līdz 5 gadu vecumam": 3,
        "Izglītojamo skaits vecumā 5 gadi un vairāk": 4,
        "Izglītojamo skaits pirmsskolā kopā": 7,
        "1. klase": 0,
        "2. klase": 0,
        "3. klase": 0,
        "4. klase": 0,
        "5. klase": 0,
        "6. klase": 0,
        "7. klase": 0,
        "8. klase": 0,
        "9. klase": 0,
        "10. klase": 0,
        "11. klase": 0,
        "12. klase": 0,
        "Kopā 1.-12.klasē": 0,
        "Izglītojamo skaits kopā": 7
      },
      {
        "_id": 5,
        "Pašvaldība": "AIZKRAUKLES NOVADS",
        "Iestādes reģistrācijas Nr.": 4501901711,
        "Iestādes nosaukums": "Skrīveru novada pirmsskolas izglītības iestāde \"Sprīdītis\"",
        "Iestādes veids": "Pirmsskolas izglītības iestāde",
        "Iestādes tips": "Pirmsskolas izglītības iestāde",
        "Pakļautība": "Pašvaldība ",
        "Faktiskais dibinātājs": "Aizkraukles novada pašvaldība",
        "Adreses ATVK kods": 20530,
        "Izglītības programmas kods": 1015611,
        "Izglītības programmas nosaukums": "Speciālās pirmsskolas izglītības programma izglītojamajiem ar jauktiem attīstības traucējumiem",
        "Izglītojamo skaits vecumā līdz 5 gadu vecumam": 0,
        "Izglītojamo skaits vecumā 5 gadi un vairāk": 8,
        "Izglītojamo skaits pirmsskolā kopā": 8,
        "1. klase": 0,
        "2. klase": 0,
        "3. klase": 0,
        "4. klase": 0,
        "5. klase": 0,
        "6. klase": 0,
        "7. klase": 0,
        "8. klase": 0,
        "9. klase": 0,
        "10. klase": 0,
        "11. klase": 0,
        "12. klase": 0,
        "Kopā 1.-12.klasē": 0,
        "Izglītojamo skaits kopā": 8
      },
      {
        "_id": 6,
        "Pašvaldība": "AIZKRAUKLES NOVADS",
        "Iestādes reģistrācijas Nr.": 4501901714,
        "Iestādes nosaukums": "Seces pirmsskolas izglītības iestāde \"Vasariņa\"",
        "Iestādes veids": "Pirmsskolas izglītības iestāde",
        "Iestādes tips": "Pirmsskolas izglītības iestāde",
        "Pakļautība": "Pašvaldība ",
        "Faktiskais dibinātājs": "Aizkraukles novada pašvaldība",
        "Adreses ATVK kods": 20510,
        "Izglītības programmas kods": 1011111,
        "Izglītības programmas nosaukums": "Pirmsskolas izglītības programma",
        "Izglītojamo skaits vecumā līdz 5 gadu vecumam": 18,
        "Izglītojamo skaits vecumā 5 gadi un vairāk": 19,
        "Izglītojamo skaits pirmsskolā kopā": 37,
        "1. klase": 0,
        "2. klase": 0,
        "3. klase": 0,
        "4. klase": 0,
        "5. klase": 0,
        "6. klase": 0,
        "7. klase": 0,
        "8. klase": 0,
        "9. klase": 0,
        "10. klase": 0,
        "11. klase": 0,
        "12. klase": 0,
        "Kopā 1.-12.klasē": 0,
        "Izglītojamo skaits kopā": 37
      },
      {
        "_id": 7,
        "Pašvaldība": "AIZKRAUKLES NOVADS",
        "Iestādes reģistrācijas Nr.": 4501901716,
        "Iestādes nosaukums": "Kokneses novada pirmsskolas izglītības iestāde \"Gundega\"",
        "Iestādes veids": "Pirmsskolas izglītības iestāde",
        "Iestādes tips": "Pirmsskolas izglītības iestāde",
        "Pakļautība": "Pašvaldība ",
        "Faktiskais dibinātājs": "Aizkraukles novada pašvaldība",
        "Adreses ATVK kods": 20220,
        "Izglītības programmas kods": 1011111,
        "Izglītības programmas nosaukums": "Pirmsskolas izglītības programma",
        "Izglītojamo skaits vecumā līdz 5 gadu vecumam": 102,
        "Izglītojamo skaits vecumā 5 gadi un vairāk": 65,
        "Izglītojamo skaits pirmsskolā kopā": 167,
        "1. klase": 0,
        "2. klase": 0,
        "3. klase": 0,
        "4. klase": 0,
        "5. klase": 0,
        "6. klase": 0,
        "7. klase": 0,
        "8. klase": 0,
        "9. klase": 0,
        "10. klase": 0,
        "11. klase": 0,
        "12. klase": 0,
        "Kopā 1.-12.klasē": 0,
        "Izglītojamo skaits kopā": 167
      },
      {
        "_id": 8,
        "Pašvaldība": "AIZKRAUKLES NOVADS",
        "Iestādes reģistrācijas Nr.": 4501901768,
        "Iestādes nosaukums": "Aizkraukles pilsētas pirmsskolas izglītības iestāde \"Auseklītis\"",
        "Iestādes veids": "Pirmsskolas izglītības iestāde",
        "Iestādes tips": "Pirmsskolas izglītības iestāde",
        "Pakļautība": "Pašvaldība ",
        "Faktiskais dibinātājs": "Aizkraukles novada pašvaldība",
        "Adreses ATVK kods": 20200,
        "Izglītības programmas kods": 1011111,
        "Izglītības programmas nosaukums": "Pirmsskolas izglītības programma",
        "Izglītojamo skaits vecumā līdz 5 gadu vecumam": 105,
        "Izglītojamo skaits vecumā 5 gadi un vairāk": 81,
        "Izglītojamo skaits pirmsskolā kopā": 186,
        "1. klase": 0,
        "2. klase": 0,
        "3. klase": 0,
        "4. klase": 0,
        "5. klase": 0,
        "6. klase": 0,
        "7. klase": 0,
        "8. klase": 0,
        "9. klase": 0,
        "10. klase": 0,
        "11. klase": 0,
        "12. klase": 0,
        "Kopā 1.-12.klasē": 0,
        "Izglītojamo skaits kopā": 186
      },
      {
        "_id": 9,
        "Pašvaldība": "AIZKRAUKLES NOVADS",
        "Iestādes reģistrācijas Nr.": 4501901768,
        "Iestādes nosaukums": "Aizkraukles pilsētas pirmsskolas izglītības iestāde \"Auseklītis\"",
        "Iestādes veids": "Pirmsskolas izglītības iestāde",
        "Iestādes tips": "Pirmsskolas izglītības iestāde",
        "Pakļautība": "Pašvaldība ",
        "Faktiskais dibinātājs": "Aizkraukles novada pašvaldība",
        "Adreses ATVK kods": 20200,
        "Izglītības programmas kods": 1015511,
        "Izglītības programmas nosaukums": "Speciālās pirmsskolas izglītības programma izglītojamajiem ar valodas traucējumiem",
        "Izglītojamo skaits vecumā līdz 5 gadu vecumam": 0,
        "Izglītojamo skaits vecumā 5 gadi un vairāk": 3,
        "Izglītojamo skaits pirmsskolā kopā": 3,
        "1. klase": 0,
        "2. klase": 0,
        "3. klase": 0,
        "4. klase": 0,
        "5. klase": 0,
        "6. klase": 0,
        "7. klase": 0,
        "8. klase": 0,
        "9. klase": 0,
        "10. klase": 0,
        "11. klase": 0,
        "12. klase": 0,
        "Kopā 1.-12.klasē": 0,
        "Izglītojamo skaits kopā": 3
      },
      {
        "_id": 10,
        "Pašvaldība": "AIZKRAUKLES NOVADS",
        "Iestādes reģistrācijas Nr.": 4501901770,
        "Iestādes nosaukums": "Daudzeses pagasta pirmsskolas izglītības iestāde \"Čiekuriņš\"",
        "Iestādes veids": "Pirmsskolas izglītības iestāde",
        "Iestādes tips": "Pirmsskolas izglītības iestāde",
        "Pakļautība": "Pašvaldība ",
        "Faktiskais dibinātājs": "Aizkraukles novada pašvaldība",
        "Adreses ATVK kods": 20430,
        "Izglītības programmas kods": 1011111,
        "Izglītības programmas nosaukums": "Pirmsskolas izglītības programma",
        "Izglītojamo skaits vecumā līdz 5 gadu vecumam": 24,
        "Izglītojamo skaits vecumā 5 gadi un vairāk": 23,
        "Izglītojamo skaits pirmsskolā kopā": 47,
        "1. klase": 0,
        "2. klase": 0,
        "3. klase": 0,
        "4. klase": 0,
        "5. klase": 0,
        "6. klase": 0,
        "7. klase": 0,
        "8. klase": 0,
        "9. klase": 0,
        "10. klase": 0,
        "11. klase": 0,
        "12. klase": 0,
        "Kopā 1.-12.klasē": 0,
        "Izglītojamo skaits kopā": 47
      },
      {
        "_id": 11,
        "Pašvaldība": "AIZKRAUKLES NOVADS",
        "Iestādes reģistrācijas Nr.": 4501901771,
        "Iestādes nosaukums": "Pļaviņu pirmsskolas izglītības iestāde \"Jumītis\"",
        "Iestādes veids": "Pirmsskolas izglītības iestāde",
        "Iestādes tips": "Pirmsskolas izglītības iestāde",
        "Pakļautība": "Pašvaldība ",
        "Faktiskais dibinātājs": "Aizkraukles novada pašvaldība",
        "Adreses ATVK kods": 20230,
        "Izglītības programmas kods": 1011111,
        "Izglītības programmas nosaukums": "Pirmsskolas izglītības programma",
        "Izglītojamo skaits vecumā līdz 5 gadu vecumam": 94,
        "Izglītojamo skaits vecumā 5 gadi un vairāk": 81,
        "Izglītojamo skaits pirmsskolā kopā": 175,
        "1. klase": 0,
        "2. klase": 0,
        "3. klase": 0,
        "4. klase": 0,
        "5. klase": 0,
        "6. klase": 0,
        "7. klase": 0,
        "8. klase": 0,
        "9. klase": 0,
        "10. klase": 0,
        "11. klase": 0,
        "12. klase": 0,
        "Kopā 1.-12.klasē": 0,
        "Izglītojamo skaits kopā": 175
      },
      {
        "_id": 12,
        "Pašvaldība": "AIZKRAUKLES NOVADS",
        "Iestādes reģistrācijas Nr.": 4501901772,
        "Iestādes nosaukums": "Jaunjelgavas pirmsskolas izglītības iestāde \"Atvasīte\"",
        "Iestādes veids": "Pirmsskolas izglītības iestāde",
        "Iestādes tips": "Pirmsskolas izglītības iestāde",
        "Pakļautība": "Pašvaldība ",
        "Faktiskais dibinātājs": "Aizkraukles novada pašvaldība",
        "Adreses ATVK kods": 20210,
        "Izglītības programmas kods": 1011111,
        "Izglītības programmas nosaukums": "Pirmsskolas izglītības programma",
        "Izglītojamo skaits vecumā līdz 5 gadu vecumam": 58,
        "Izglītojamo skaits vecumā 5 gadi un vairāk": 45,
        "Izglītojamo skaits pirmsskolā kopā": 103,
        "1. klase": 0,
        "2. klase": 0,
        "3. klase": 0,
        "4. klase": 0,
        "5. klase": 0,
        "6. klase": 0,
        "7. klase": 0,
        "8. klase": 0,
        "9. klase": 0,
        "10. klase": 0,
        "11. klase": 0,
        "12. klase": 0,
        "Kopā 1.-12.klasē": 0,
        "Izglītojamo skaits kopā": 103
      },
      {
        "_id": 13,
        "Pašvaldība": "AIZKRAUKLES NOVADS",
        "Iestādes reģistrācijas Nr.": 4501901772,
        "Iestādes nosaukums": "Jaunjelgavas pirmsskolas izglītības iestāde \"Atvasīte\"",
        "Iestādes veids": "Pirmsskolas izglītības iestāde",
        "Iestādes tips": "Pirmsskolas izglītības iestāde",
        "Pakļautība": "Pašvaldība ",
        "Faktiskais dibinātājs": "Aizkraukles novada pašvaldība",
        "Adreses ATVK kods": 20210,
        "Izglītības programmas kods": 1015611,
        "Izglītības programmas nosaukums": "Speciālās pirmsskolas izglītības programma izglītojamajiem ar jauktiem attīstības traucējumiem",
        "Izglītojamo skaits vecumā līdz 5 gadu vecumam": 1,
        "Izglītojamo skaits vecumā 5 gadi un vairāk": 3,
        "Izglītojamo skaits pirmsskolā kopā": 4,
        "1. klase": 0,
        "2. klase": 0,
        "3. klase": 0,
        "4. klase": 0,
        "5. klase": 0,
        "6. klase": 0,
        "7. klase": 0,
        "8. klase": 0,
        "9. klase": 0,
        "10. klase": 0,
        "11. klase": 0,
        "12. klase": 0,
        "Kopā 1.-12.klasē": 0,
        "Izglītojamo skaits kopā": 4
      },
      {
        "_id": 14,
        "Pašvaldība": "AIZKRAUKLES NOVADS",
        "Iestādes reģistrācijas Nr.": 4501901773,
        "Iestādes nosaukums": "Aizkraukles pilsētas pirmsskolas izglītības iestāde \"Zīlīte\"",
        "Iestādes veids": "Pirmsskolas izglītības iestāde",
        "Iestādes tips": "Pirmsskolas izglītības iestāde",
        "Pakļautība": "Pašvaldība ",
        "Faktiskais dibinātājs": "Aizkraukles novada pašvaldība",
        "Adreses ATVK kods": 20200,
        "Izglītības programmas kods": 1011111,
        "Izglītības programmas nosaukums": "Pirmsskolas izglītības programma",
        "Izglītojamo skaits vecumā līdz 5 gadu vecumam": 110,
        "Izglītojamo skaits vecumā 5 gadi un vairāk": 96,
        "Izglītojamo skaits pirmsskolā kopā": 206,
        "1. klase": 0,
        "2. klase": 0,
        "3. klase": 0,
        "4. klase": 0,
        "5. klase": 0,
        "6. klase": 0,
        "7. klase": 0,
        "8. klase": 0,
        "9. klase": 0,
        "10. klase": 0,
        "11. klase": 0,
        "12. klase": 0,
        "Kopā 1.-12.klasē": 0,
        "Izglītojamo skaits kopā": 206
      },
      {
        "_id": 15,
        "Pašvaldība": "AIZKRAUKLES NOVADS",
        "Iestādes reģistrācijas Nr.": 4501902670,
        "Iestādes nosaukums": "Skrīveru novada pirmsskolas izglītības iestāde \"Saulēni\"",
        "Iestādes veids": "Pirmsskolas izglītības iestāde",
        "Iestādes tips": "Pirmsskolas izglītības iestāde",
        "Pakļautība": "Pašvaldība ",
        "Faktiskais dibinātājs": "Aizkraukles novada pašvaldība",
        "Adreses ATVK kods": 20530,
        "Izglītības programmas kods": 1011111,
        "Izglītības programmas nosaukums": "Vispārējās pirmsskolas izglītības programma",
        "Izglītojamo skaits vecumā līdz 5 gadu vecumam": 24,
        "Izglītojamo skaits vecumā 5 gadi un vairāk": 19,
        "Izglītojamo skaits pirmsskolā kopā": 43,
        "1. klase": 0,
        "2. klase": 0,
        "3. klase": 0,
        "4. klase": 0,
        "5. klase": 0,
        "6. klase": 0,
        "7. klase": 0,
        "8. klase": 0,
        "9. klase": 0,
        "10. klase": 0,
        "11. klase": 0,
        "12. klase": 0,
        "Kopā 1.-12.klasē": 0,
        "Izglītojamo skaits kopā": 43
      },
      {
        "_id": 16,
        "Pašvaldība": "AIZKRAUKLES NOVADS",
        "Iestādes reģistrācijas Nr.": 4501903388,
        "Iestādes nosaukums": "Aizkraukles pilsētas pirmsskolas izglītības iestāde \"Saulīte\"",
        "Iestādes veids": "Pirmsskolas izglītības iestāde",
        "Iestādes tips": "Pirmsskolas izglītības iestāde",
        "Pakļautība": "Pašvaldība ",
        "Faktiskais dibinātājs": "Aizkraukles novada pašvaldība",
        "Adreses ATVK kods": 20200,
        "Izglītības programmas kods": 1011111,
        "Izglītības programmas nosaukums": "Vispārējās pirmsskolas izglītības programma",
        "Izglītojamo skaits vecumā līdz 5 gadu vecumam": 14,
        "Izglītojamo skaits vecumā 5 gadi un vairāk": 9,
        "Izglītojamo skaits pirmsskolā kopā": 23,
        "1. klase": 0,
        "2. klase": 0,
        "3. klase": 0,
        "4. klase": 0,
        "5. klase": 0,
        "6. klase": 0,
        "7. klase": 0,
        "8. klase": 0,
        "9. klase": 0,
        "10. klase": 0,
        "11. klase": 0,
        "12. klase": 0,
        "Kopā 1.-12.klasē": 0,
        "Izglītojamo skaits kopā": 23
      },
      {
        "_id": 17,
        "Pašvaldība": "AIZKRAUKLES NOVADS",
        "Iestādes reģistrācijas Nr.": 4501903388,
        "Iestādes nosaukums": "Aizkraukles pilsētas pirmsskolas izglītības iestāde \"Saulīte\"",
        "Iestādes veids": "Pirmsskolas izglītības iestāde",
        "Iestādes tips": "Pirmsskolas izglītības iestāde",
        "Pakļautība": "Pašvaldība ",
        "Faktiskais dibinātājs": "Aizkraukles novada pašvaldība",
        "Adreses ATVK kods": 20200,
        "Izglītības programmas kods": 1015511,
        "Izglītības programmas nosaukums": "Speciālās pirmsskolas izglītības programma izglītojamajiem ar valodas traucējumiem",
        "Izglītojamo skaits vecumā līdz 5 gadu vecumam": 4,
        "Izglītojamo skaits vecumā 5 gadi un vairāk": 3,
        "Izglītojamo skaits pirmsskolā kopā": 7,
        "1. klase": 0,
        "2. klase": 0,
        "3. klase": 0,
        "4. klase": 0,
        "5. klase": 0,
        "6. klase": 0,
        "7. klase": 0,
        "8. klase": 0,
        "9. klase": 0,
        "10. klase": 0,
        "11. klase": 0,
        "12. klase": 0,
        "Kopā 1.-12.klasē": 0,
        "Izglītojamo skaits kopā": 7
      },
      {
        "_id": 18,
        "Pašvaldība": "AIZKRAUKLES NOVADS",
        "Iestādes reģistrācijas Nr.": 4501903388,
        "Iestādes nosaukums": "Aizkraukles pilsētas pirmsskolas izglītības iestāde \"Saulīte\"",
        "Iestādes veids": "Pirmsskolas izglītības iestāde",
        "Iestādes tips": "Pirmsskolas izglītības iestāde",
        "Pakļautība": "Pašvaldība ",
        "Faktiskais dibinātājs": "Aizkraukles novada pašvaldība",
        "Adreses ATVK kods": 20200,
        "Izglītības programmas kods": 1015611,
        "Izglītības programmas nosaukums": "Speciālās pirmsskolas izglītības programma izglītojamajiem ar jauktiem attīstības traucējumiem",
        "Izglītojamo skaits vecumā līdz 5 gadu vecumam": 8,
        "Izglītojamo skaits vecumā 5 gadi un vairāk": 16,
        "Izglītojamo skaits pirmsskolā kopā": 24,
        "1. klase": 0,
        "2. klase": 0,
        "3. klase": 0,
        "4. klase": 0,
        "5. klase": 0,
        "6. klase": 0,
        "7. klase": 0,
        "8. klase": 0,
        "9. klase": 0,
        "10. klase": 0,
        "11. klase": 0,
        "12. klase": 0,
        "Kopā 1.-12.klasē": 0,
        "Izglītojamo skaits kopā": 24
      },
      {
        "_id": 19,
        "Pašvaldība": "AIZKRAUKLES NOVADS",
        "Iestādes reģistrācijas Nr.": 4501903388,
        "Iestādes nosaukums": "Aizkraukles pilsētas pirmsskolas izglītības iestāde \"Saulīte\"",
        "Iestādes veids": "Pirmsskolas izglītības iestāde",
        "Iestādes tips": "Pirmsskolas izglītības iestāde",
        "Pakļautība": "Pašvaldība ",
        "Faktiskais dibinātājs": "Aizkraukles novada pašvaldība",
        "Adreses ATVK kods": 20200,
        "Izglītības programmas kods": 1015811,
        "Izglītības programmas nosaukums": "Speciālās pirmsskolas izglītības programma izglītojamajiem ar garīgās attīstības traucējumiem",
        "Izglītojamo skaits vecumā līdz 5 gadu vecumam": 1,
        "Izglītojamo skaits vecumā 5 gadi un vairāk": 5,
        "Izglītojamo skaits pirmsskolā kopā": 6,
        "1. klase": 0,
        "2. klase": 0,
        "3. klase": 0,
        "4. klase": 0,
        "5. klase": 0,
        "6. klase": 0,
        "7. klase": 0,
        "8. klase": 0,
        "9. klase": 0,
        "10. klase": 0,
        "11. klase": 0,
        "12. klase": 0,
        "Kopā 1.-12.klasē": 0,
        "Izglītojamo skaits kopā": 6
      },
      {
        "_id": 20,
        "Pašvaldība": "AIZKRAUKLES NOVADS",
        "Iestādes reģistrācijas Nr.": 4501903388,
        "Iestādes nosaukums": "Aizkraukles pilsētas pirmsskolas izglītības iestāde \"Saulīte\"",
        "Iestādes veids": "Pirmsskolas izglītības iestāde",
        "Iestādes tips": "Pirmsskolas izglītības iestāde",
        "Pakļautība": "Pašvaldība ",
        "Faktiskais dibinātājs": "Aizkraukles novada pašvaldība",
        "Adreses ATVK kods": 20200,
        "Izglītības programmas kods": 1015911,
        "Izglītības programmas nosaukums": "Speciālās pirmsskolas izglītības programma izglītojamajiem ar smagiem garīgās attīstības traucējumiem vai vairākiem smagiem attīstības traucējumiem",
        "Izglītojamo skaits vecumā līdz 5 gadu vecumam": 1,
        "Izglītojamo skaits vecumā 5 gadi un vairāk": 2,
        "Izglītojamo skaits pirmsskolā kopā": 3,
        "1. klase": 0,
        "2. klase": 0,
        "3. klase": 0,
        "4. klase": 0,
        "5. klase": 0,
        "6. klase": 0,
        "7. klase": 0,
        "8. klase": 0,
        "9. klase": 0,
        "10. klase": 0,
        "11. klase": 0,
        "12. klase": 0,
        "Kopā 1.-12.klasē": 0,
        "Izglītojamo skaits kopā": 3
      }
    ],
    "limit": 20,
    "_links": {
      "start": "/api/3/action/datastore_search?limit=20&resource_id=f7ae4483-8f99-43a9-afd6-11367871cd34",
      "next": "/api/3/action/datastore_search?offset=20&limit=20&resource_id=f7ae4483-8f99-43a9-afd6-11367871cd34"
    },
    "total": 3313
  }
}